C:\Users\E002465\Desktop\DemoFrame\DemoFramework\src\main\java\accelerators\ActionEngine.java
C:\Users\E002465\Desktop\DemoFrame\DemoFramework\src\main\java\utils\ExcelUtilsJxl.java
C:\Users\E002465\Desktop\DemoFrame\DemoFramework\src\main\java\utils\MyListener.java
C:\Users\E002465\Desktop\DemoFrame\DemoFramework\src\main\java\accelerators\TestEngine.java
